2,21,5,1,2012-01-31 17:57:08
4,100,92,1,2012-01-31 19:11:35
6,17,13,1,2012-01-31 19:38:05
13,72,15,1,2012-01-31 20:17:42
19,97,92,2,2012-02-01 17:54:46
19,123,97,1,2012-02-01 18:03:22
19,127,98,1,2012-02-01 18:09:44
20,76,15,1,2012-02-01 18:21:13
19,76,15,1,2012-02-01 22:31:53
19,76,15,1,2012-02-01 22:38:57
19,128,99,1,2012-02-01 23:09:51
19,129,1,1,2012-02-02 17:56:33
3,135,101,1,2012-02-05 13:09:36
29,6,16,1,2012-02-05 13:19:40
29,19,5,1,2012-02-05 13:20:12
29,136,16,1,2012-02-05 13:22:35
29,76,15,1,2012-02-05 19:31:31
29,138,16,1,2012-02-05 19:44:57
29,141,18,1,2012-02-07 16:46:41
3,169,12,1,2012-02-10 16:25:56
3,178,11,1,2012-02-13 23:47:09
3,287,16,5,2012-04-12 20:00:15
3,138,16,4,2012-04-12 20:57:43
39,7,100,5,2012-05-31 12:43:26
3,67,8,5,2012-06-01 14:48:15
42,8,92,3,2012-06-02 12:04:05
43,16,11,4,2012-06-02 12:09:25
43,93,39,4,2012-06-02 12:11:29
43,138,16,3,2012-06-02 12:21:59
43,51,14,4,2012-06-02 12:22:37
61,30,1,3,2012-06-06 19:25:20
61,121,2,4,2012-06-06 19:47:54
68,76,15,2,2012-06-06 19:49:27
68,39,1,3,2012-06-06 19:52:36
68,101,16,4,2012-06-06 19:54:42
68,35,3,5,2012-06-06 19:58:36
68,7,18,5,2012-06-06 20:01:21
68,80,2,3,2012-06-06 20:04:41
68,34,3,5,2012-06-06 20:05:48
68,84,18,4,2012-06-06 20:07:20
68,46,8,3,2012-06-06 20:08:27
68,37,19,4,2012-06-06 20:09:51
68,17,13,5,2012-06-06 20:12:05
3,289,8,1,2012-06-06 22:19:51
64,40,1,4,2012-06-07 12:10:11
70,34,12,4,2012-06-14 14:30:38
72,76,15,1,2012-06-14 14:43:54
3,291,16,3,2012-06-14 14:49:18
3,292,3,5,2012-06-14 14:54:33
83,121,2,4,2012-06-14 15:13:23
92,7,18,4,2012-06-14 15:42:57
102,59,13,1,2012-06-14 18:45:17
102,94,39,5,2012-06-14 18:46:53
107,293,4,5,2012-06-14 21:32:08
111,7,100,1,2012-06-15 04:15:51
4,300,13,5,2012-06-22 00:48:33
4,300,13,5,2012-06-22 19:55:25
4,301,17,4,2012-06-22 19:57:56
3,4,11,5,2012-06-27 01:31:47
135,16,4,5,2012-06-27 15:54:56
135,8,92,5,2012-06-27 15:56:27
135,39,1,5,2012-06-27 16:01:02
135,46,8,4,2012-06-28 00:13:23
136,8,92,5,2012-06-28 00:14:34
135,289,8,5,2012-06-28 00:15:42
136,7,82,5,2012-06-28 00:16:00
135,7,18,5,2012-06-28 00:16:24
141,302,11,4,2012-07-02 03:10:17
141,303,5,5,2012-07-03 01:12:30
19,305,92,5,2012-07-03 17:30:58
19,306,92,3,2012-07-03 17:33:11
19,307,92,2,2012-07-03 17:35:00
19,308,1,5,2012-07-03 17:36:47
19,309,1,4,2012-07-03 17:38:08
149,34,16,5,2012-07-03 18:49:39
147,292,3,5,2012-07-04 14:03:39
147,292,3,5,2012-07-04 14:04:07
147,291,16,4,2012-07-04 14:04:18
147,138,16,5,2012-07-04 14:05:00
135,74,15,5,2012-07-04 15:42:16
68,27,9,4,2012-07-04 18:10:48
68,32,1,2,2012-07-04 18:13:09
68,38,1,3,2012-07-04 18:13:39
68,309,1,2,2012-07-04 18:15:24
68,135,103,4,2012-07-04 18:16:10
68,16,33,4,2012-07-04 18:16:54
68,30,1,2,2012-07-04 18:17:31
68,92,99,3,2012-07-04 18:18:17
68,34,3,5,2012-07-04 18:19:19
68,121,2,4,2012-07-04 18:20:06
142,310,84,5,2012-07-04 21:35:47
142,310,84,5,2012-07-04 21:36:17
4,35,3,5,2012-07-04 21:43:46
63,311,2,4,2012-07-04 22:33:39
63,312,11,5,2012-07-04 22:37:27
63,309,1,5,2012-07-04 22:40:54
63,38,1,4,2012-07-04 22:43:22
37,100,92,4,2012-07-04 22:43:40
63,80,11,1,2012-07-04 22:43:42
63,32,1,1,2012-07-04 22:44:18
63,313,1,5,2012-07-04 22:49:53
154,62,12,5,2012-07-05 01:06:25
10,62,12,5,2012-07-05 02:27:25
136,92,88,5,2012-07-05 20:56:42
136,39,1,4,2012-07-05 20:58:13
4,17,13,4,2012-07-05 22:48:59
4,12,3,5,2012-07-06 11:56:56
10,315,5,3,2012-07-07 14:40:09
10,316,12,5,2012-07-07 14:41:27
10,317,39,5,2012-07-07 14:42:39
4,91,6,5,2012-07-07 21:50:59
136,40,1,4,2012-07-16 17:19:26
136,72,53,4,2012-07-16 17:24:32
10,76,15,4,2012-07-31 22:52:26
154,71,12,3,2012-08-03 13:08:59
141,138,16,5,2012-08-08 21:45:19
141,136,16,5,2012-08-08 21:45:55
141,67,8,5,2012-08-08 21:46:34
162,67,8,5,2012-08-08 22:11:52
162,136,16,5,2012-08-08 22:12:15
162,138,16,5,2012-08-08 22:12:40
28,318,78,3,2012-08-09 00:21:04
28,319,1,4,2012-08-09 00:29:28
28,320,19,2,2012-08-09 00:31:11
28,321,3,1,2012-08-09 00:34:29
28,322,3,3,2012-08-09 00:38:24
28,323,92,4,2012-08-09 00:39:49
28,324,4,4,2012-08-09 00:45:09
28,325,17,3,2012-08-09 00:48:36
28,326,1,1,2012-08-09 00:50:50
28,327,11,4,2012-08-09 00:55:38
147,169,12,3,2012-08-10 21:48:39
147,332,1,5,2012-08-10 22:06:05
147,333,5,5,2012-08-10 22:07:55
147,334,5,5,2012-08-10 22:09:53
147,335,83,5,2012-08-10 22:11:36
147,336,1,5,2012-08-10 22:13:24
147,337,1,5,2012-08-10 22:15:51
147,338,5,2,2012-08-10 22:26:26
147,339,1,5,2012-08-10 22:31:27
165,339,92,1,2012-08-11 18:04:03
147,341,1,5,2012-08-11 18:42:58
10,334,5,3,2012-08-11 22:05:33
154,298,5,1,2012-08-15 16:05:56
154,6,24,3,2012-08-15 16:06:30
171,155,1,4,2012-08-16 23:51:45
171,82,4,5,2012-08-16 23:52:48
171,1,11,5,2012-08-16 23:57:35
171,86,18,4,2012-08-17 00:01:04
171,342,1,5,2012-08-17 00:02:58
171,343,11,5,2012-08-17 00:04:09
171,344,96,5,2012-08-17 00:08:06
10,38,1,5,2012-08-17 00:40:24
10,7,100,5,2012-08-17 00:41:29
4,345,17,5,2012-08-23 09:59:08
4,346,98,5,2012-08-23 10:00:43
4,347,1,5,2012-08-23 10:02:33
4,348,5,5,2012-08-23 10:05:30
4,349,2,5,2012-08-23 10:09:02
4,350,18,5,2012-08-23 10:10:11
4,351,17,5,2012-08-23 11:02:39
4,352,4,5,2012-08-23 11:04:20
4,353,1,5,2012-08-23 11:07:11
4,354,1,5,2012-08-23 11:09:27
4,355,97,5,2012-08-23 11:11:18
4,356,1,5,2012-08-23 11:14:08
4,357,1,5,2012-08-23 11:16:04
14,358,11,4,2012-08-23 13:00:28
14,359,11,3,2012-08-23 13:03:28
14,360,11,4,2012-08-23 13:11:02
14,361,11,3,2012-08-23 13:15:35
14,362,11,3,2012-08-23 13:18:15
14,363,1,5,2012-08-23 13:22:10
30,137,3,5,2012-08-23 13:26:28
14,364,103,1,2012-08-23 13:29:44
14,365,11,4,2012-08-23 13:32:15
14,366,104,3,2012-08-23 13:37:13
14,367,96,4,2012-08-23 13:40:45
30,91,39,5,2012-08-23 13:43:36
14,368,1,4,2012-08-23 13:46:59
33,135,33,5,2012-08-23 13:47:13
33,16,33,4,2012-08-23 13:49:28
14,369,1,4,2012-08-23 13:50:34
33,49,13,5,2012-08-23 13:50:58
33,7,100,4,2012-08-23 13:54:33
33,74,96,5,2012-08-23 13:56:20
33,34,3,5,2012-08-23 13:57:29
33,98,97,5,2012-08-23 13:59:27
33,35,3,4,2012-08-23 14:00:11
33,37,19,5,2012-08-23 14:03:54
33,44,33,4,2012-08-23 14:05:10
33,27,9,5,2012-08-23 14:06:24
33,32,1,2,2012-08-23 14:07:31
30,348,5,5,2012-08-23 14:08:07
30,6,97,5,2012-08-23 14:14:47
33,370,11,5,2012-08-23 14:21:36
33,371,11,4,2012-08-23 14:28:15
33,372,33,5,2012-08-23 14:33:23
33,373,16,5,2012-08-23 14:35:06
33,374,97,5,2012-08-23 14:38:56
30,27,9,5,2012-08-23 14:55:48
33,375,9,4,2012-08-23 14:58:47
30,322,16,5,2012-08-23 15:09:51
30,86,100,4,2012-08-23 15:30:35
30,364,103,1,2012-08-23 15:41:17
30,65,12,2,2012-08-23 15:51:24
30,17,15,3,2012-08-23 15:57:11
33,376,103,3,2012-08-23 15:57:14
33,377,2,4,2012-08-23 15:59:26
33,378,11,3,2012-08-23 16:01:46
33,379,16,5,2012-08-23 16:10:14
141,66,12,5,2012-08-24 00:12:55
141,369,1,5,2012-08-24 00:13:47
141,367,96,5,2012-08-24 00:14:11
141,137,16,5,2012-08-24 00:14:50
141,363,1,5,2012-08-24 00:15:18
141,380,1,5,2012-08-24 00:26:50
141,381,1,5,2012-08-24 00:33:04
141,382,104,5,2012-08-24 00:36:36
141,383,4,5,2012-08-24 00:39:23
141,384,11,5,2012-08-24 00:42:07
177,49,13,4,2012-08-24 00:47:37
141,385,18,5,2012-08-24 00:51:44
177,23,20,4,2012-08-24 00:53:15
141,386,5,5,2012-08-24 00:55:06
177,56,98,4,2012-08-24 00:55:15
141,387,103,5,2012-08-24 00:56:39
177,376,103,4,2012-08-24 00:57:54
177,377,4,4,2012-08-24 00:59:51
177,290,24,4,2012-08-24 01:00:41
141,388,11,5,2012-08-24 01:00:41
141,389,2,5,2012-08-24 01:02:37
141,390,97,5,2012-08-24 01:05:21
162,56,14,5,2012-08-24 01:20:19
178,49,2,1,2012-08-24 01:20:19
162,333,5,5,2012-08-24 01:20:52
162,23,20,5,2012-08-24 01:22:28
30,391,96,5,2012-08-24 01:25:15
178,51,13,5,2012-08-24 01:28:03
178,368,1,4,2012-08-24 01:29:17
178,51,14,4,2012-08-24 01:30:04
178,347,1,5,2012-08-24 01:30:50
178,339,2,2,2012-08-24 01:32:57
178,91,39,5,2012-08-24 01:34:12
178,392,2,4,2012-08-24 01:45:26
178,393,4,5,2012-08-24 01:47:39
178,394,4,2,2012-08-24 01:53:35
10,391,11,4,2012-08-24 01:54:16
30,395,103,5,2012-08-24 01:54:38
178,396,96,4,2012-08-24 01:57:56
178,397,96,2,2012-08-24 02:06:15
178,398,4,4,2012-08-24 02:10:08
178,399,96,3,2012-08-24 02:14:00
178,400,96,3,2012-08-24 02:17:02
178,401,104,5,2012-08-24 02:18:29
178,402,2,5,2012-08-24 02:20:51
147,62,12,3,2012-08-25 20:50:19
147,76,15,5,2012-08-25 20:51:00
147,334,5,4,2012-08-25 20:53:46
147,289,8,3,2012-08-25 20:54:53
147,7,18,5,2012-08-25 20:55:30
147,292,3,5,2012-08-25 20:55:56
147,403,98,3,2012-08-25 21:00:58
147,404,9,5,2012-08-25 21:02:40
147,405,100,4,2012-08-25 21:05:13
147,406,98,3,2012-08-25 21:06:08
147,407,98,2,2012-08-25 21:06:37
147,409,96,4,2012-08-25 21:11:19
147,410,38,5,2012-08-25 21:12:21
147,138,16,4,2012-08-25 21:17:43
147,4,11,4,2012-08-25 21:20:32
147,57,14,4,2012-08-25 21:21:38
147,305,92,3,2012-08-25 21:22:30
147,291,16,4,2012-08-25 21:22:51
147,97,6,4,2012-08-25 21:23:45
147,30,1,2,2012-08-25 21:24:30
147,289,8,4,2012-08-25 21:25:32
147,343,11,2,2012-08-25 21:33:20
147,344,96,5,2012-08-25 21:34:36
147,301,17,4,2012-08-25 21:35:12
147,86,18,5,2012-08-25 21:35:31
147,35,3,1,2012-08-25 21:35:55
147,91,6,1,2012-08-25 21:36:17
147,17,13,3,2012-08-25 21:38:21
147,12,3,5,2012-08-25 21:39:04
147,356,1,3,2012-08-25 21:43:24
154,411,106,1,2012-08-26 14:03:37
154,416,98,1,2012-08-26 14:09:16
154,417,18,3,2012-08-26 14:10:19
154,419,105,2,2012-08-26 14:12:44
154,420,105,3,2012-08-26 14:13:36
179,34,16,4,2012-08-26 18:37:46
179,421,1,5,2012-08-26 18:39:34
179,7,100,5,2012-08-27 12:47:34
179,35,16,5,2012-08-27 12:48:36
179,39,1,3,2012-08-27 12:49:53
179,322,102,2,2012-08-27 12:50:58
179,16,33,5,2012-08-27 12:53:56
179,46,8,5,2012-08-27 12:54:38
179,293,97,3,2012-08-27 12:56:58
181,358,11,5,2012-08-28 00:26:15
181,6,97,5,2012-08-28 00:26:46
181,136,102,3,2012-08-28 00:50:48
30,422,103,5,2012-08-28 00:53:33
181,35,3,4,2012-08-28 00:58:07
30,423,3,5,2012-08-28 01:09:05
30,424,96,4,2012-08-28 14:52:13
30,425,1,4,2012-08-28 15:02:34
30,426,49,5,2012-08-28 15:18:51
183,289,8,2,2012-08-28 16:46:32
183,285,8,3,2012-08-28 16:59:02
183,26,16,1,2012-08-28 16:59:27
183,129,1,3,2012-08-28 17:00:29
183,59,13,1,2012-08-28 17:00:46
183,59,13,3,2012-08-28 17:00:59
183,72,15,1,2012-08-28 17:01:34
183,306,92,3,2012-08-28 17:01:52
183,123,11,3,2012-08-28 17:03:13
183,64,12,3,2012-08-28 17:03:54
183,98,16,1,2012-08-28 17:04:32
137,34,16,3,2012-08-29 03:35:37
137,80,11,5,2012-08-29 03:37:01
137,6,16,5,2012-08-29 03:37:40
185,30,1,3,2012-08-29 11:54:44
185,68,12,5,2012-08-29 11:55:35
185,380,1,5,2012-08-29 11:56:50
185,383,4,5,2012-08-29 11:57:03
185,384,11,4,2012-08-29 11:57:20
185,94,6,5,2012-08-29 11:57:55
185,1,11,4,2012-08-29 11:58:26
185,322,3,4,2012-08-29 11:58:56
185,38,1,3,2012-08-29 11:59:17
185,291,16,4,2012-08-29 12:00:06
185,431,97,5,2012-08-29 12:16:54
185,433,12,5,2012-08-29 12:28:28
185,434,11,5,2012-08-29 12:32:44
185,435,84,4,2012-08-29 12:37:18
185,436,2,5,2012-08-29 12:40:34
185,437,16,5,2012-08-29 12:44:12
185,438,7,4,2012-08-29 12:45:49
185,439,106,5,2012-08-29 12:48:45
185,440,97,5,2012-08-29 12:53:55
185,442,1,5,2012-08-29 13:04:13
30,443,18,4,2012-08-29 13:19:30
30,444,97,3,2012-08-29 13:35:45
30,445,96,4,2012-08-29 13:45:18
179,431,97,3,2012-08-29 21:45:33
179,122,2,3,2012-08-29 21:46:02
190,60,12,3,2012-08-30 20:03:37
190,49,13,3,2012-08-30 22:54:09
190,17,13,2,2012-08-30 22:56:00
190,416,98,2,2012-08-30 23:01:45
190,399,96,2,2012-08-30 23:12:03
190,91,6,5,2012-08-30 23:14:38
190,35,3,4,2012-08-30 23:29:35
190,4,11,5,2012-08-30 23:31:29
190,62,12,4,2012-08-30 23:34:53
191,92,6,3,2012-08-31 00:35:09
191,80,11,2,2012-08-31 00:36:17
191,16,16,4,2012-08-31 00:40:03
191,45,11,4,2012-08-31 00:41:41
191,5,4,2,2012-08-31 00:42:40
191,44,16,2,2012-08-31 00:44:08
191,37,19,4,2012-08-31 00:44:48
191,122,2,4,2012-08-31 00:45:18
191,59,13,2,2012-08-31 00:45:52
191,60,12,3,2012-08-31 00:46:33
192,310,84,1,2012-08-31 00:49:42
192,285,8,1,2012-08-31 00:50:12
192,16,16,1,2012-08-31 00:50:45
192,123,11,1,2012-08-31 00:51:21
192,13,3,1,2012-08-31 00:51:52
192,384,11,1,2012-08-31 00:52:50
192,121,2,1,2012-08-31 00:53:10
192,122,2,1,2012-08-31 00:53:33
192,68,12,1,2012-08-31 00:54:31
192,285,8,5,2012-08-31 00:57:28
192,68,12,5,2012-08-31 00:57:52
192,310,84,5,2012-08-31 00:58:22
192,16,16,5,2012-08-31 00:58:40
192,123,11,5,2012-08-31 00:59:03
192,121,2,5,2012-08-31 00:59:20
191,446,4,2,2012-08-31 01:08:28
191,447,1,2,2012-08-31 01:11:25
191,448,2,2,2012-08-31 01:18:05
191,449,84,3,2012-08-31 01:20:31
191,450,2,3,2012-08-31 01:23:35
191,451,86,3,2012-08-31 01:31:35
191,452,2,4,2012-08-31 01:35:23
191,453,1,4,2012-08-31 01:37:19
191,454,97,4,2012-08-31 01:47:22
191,455,83,4,2012-08-31 01:48:44
137,34,16,3,2012-08-31 22:58:46
137,410,38,4,2012-08-31 23:30:33
137,333,5,1,2012-08-31 23:32:20
137,57,14,3,2012-08-31 23:34:47
137,56,14,5,2012-08-31 23:46:33
137,17,13,3,2012-08-31 23:48:35
134,76,96,4,2012-09-01 00:10:16
134,85,18,4,2012-09-01 00:11:19
134,290,97,3,2012-09-01 00:14:23
134,398,4,1,2012-09-01 00:16:14
134,292,3,4,2012-09-01 00:20:40
134,425,1,5,2012-09-01 00:25:26
134,23,20,2,2012-09-01 00:27:04
134,86,100,5,2012-09-01 00:28:52
177,456,4,2,2012-09-01 01:01:04
177,457,4,2,2012-09-01 01:02:33
177,458,104,4,2012-09-01 01:04:22
177,459,13,4,2012-09-01 01:05:43
177,460,13,3,2012-09-01 01:07:34
177,461,13,2,2012-09-01 01:09:36
177,462,13,3,2012-09-01 01:13:17
137,463,2,3,2012-09-01 01:15:46
137,464,1,3,2012-09-01 01:29:10
137,465,84,4,2012-09-01 01:35:05
137,466,79,2,2012-09-01 01:44:02
194,312,11,5,2012-09-01 13:53:40
194,80,11,5,2012-09-01 13:54:00
194,98,16,4,2012-09-01 13:54:18
194,122,2,5,2012-09-01 13:54:41
194,467,38,5,2012-09-01 13:59:08
194,468,1,5,2012-09-01 14:02:56
194,469,99,4,2012-09-01 14:06:24
194,470,5,5,2012-09-01 14:08:50
194,471,79,5,2012-09-01 14:10:16
194,472,97,5,2012-09-01 14:11:02
194,473,1,5,2012-09-01 14:14:43
137,474,5,3,2012-09-01 14:22:47
137,475,16,2,2012-09-01 14:31:57
137,476,38,2,2012-09-01 14:42:26
137,477,11,2,2012-09-01 14:45:06
137,478,98,3,2012-09-01 14:53:25
137,479,97,2,2012-09-01 14:57:03
137,480,1,4,2012-09-01 15:06:48
137,481,47,2,2012-09-01 15:09:11
137,482,98,4,2012-09-01 15:13:13
137,483,12,3,2012-09-01 15:21:50
137,484,98,3,2012-09-01 15:26:11
137,485,3,3,2012-09-01 15:33:22
137,486,16,4,2012-09-01 15:39:46
137,487,98,4,2012-09-01 15:44:26
137,488,12,4,2012-09-01 15:51:54
137,489,11,3,2012-09-01 16:04:14
137,490,11,3,2012-09-01 16:06:49
137,491,11,3,2012-09-01 16:09:21
137,492,11,4,2012-09-01 16:12:30
137,493,102,3,2012-09-01 16:15:04
137,494,11,4,2012-09-01 16:17:01
137,495,2,4,2012-09-01 16:22:16
137,496,2,4,2012-09-01 16:26:30
137,497,21,5,2012-09-01 16:30:30
137,498,8,3,2012-09-01 16:37:19
137,499,4,4,2012-09-01 16:38:53
137,500,96,5,2012-09-01 16:42:18
137,501,100,4,2012-09-01 16:46:13
137,502,12,4,2012-09-01 16:55:08
195,103,5,5,2012-09-02 00:48:57
195,169,12,5,2012-09-02 00:50:12
195,315,5,5,2012-09-02 00:52:59
195,433,12,4,2012-09-02 00:55:23
195,439,106,5,2012-09-02 00:56:06
195,409,96,5,2012-09-02 00:57:01
195,410,38,5,2012-09-02 00:57:32
195,335,83,5,2012-09-02 00:58:06
195,395,103,5,2012-09-02 00:58:40
7,50,14,2,2012-09-02 20:58:54
7,5,4,2,2012-09-02 21:00:22
7,285,8,4,2012-09-02 21:01:45
7,34,16,5,2012-09-02 21:04:50
7,37,19,4,2012-09-02 21:06:54
7,50,14,4,2012-09-02 21:07:41
7,21,5,4,2012-09-02 21:09:22
7,308,1,3,2012-09-02 21:10:03
7,387,103,4,2012-09-02 21:13:10
7,503,101,5,2012-09-02 21:26:33
7,504,101,5,2012-09-02 21:31:11
7,505,4,5,2012-09-02 21:34:33
7,506,11,3,2012-09-02 21:36:25
24,285,8,2,2012-09-02 21:52:58
24,308,1,3,2012-09-02 21:53:22
24,94,6,3,2012-09-02 21:54:11
24,26,16,2,2012-09-02 21:54:27
24,155,1,2,2012-09-02 21:54:55
24,27,9,1,2012-09-02 21:55:24
10,487,107,5,2012-09-02 22:12:06
8,507,108,4,2012-09-02 23:14:21
8,508,99,5,2012-09-02 23:17:14
8,509,96,4,2012-09-02 23:19:09
8,510,109,3,2012-09-02 23:21:23
8,511,16,5,2012-09-02 23:34:21
8,512,102,5,2012-09-02 23:35:34
8,513,13,5,2012-09-02 23:43:35
8,514,108,3,2012-09-02 23:49:36
196,431,97,5,2012-09-02 23:53:32
8,515,4,5,2012-09-02 23:53:37
8,516,11,4,2012-09-02 23:55:29
196,467,38,5,2012-09-02 23:55:57
8,169,12,3,2012-09-02 23:56:30
196,469,99,5,2012-09-02 23:56:32
196,470,5,5,2012-09-02 23:57:04
8,317,39,1,2012-09-02 23:57:07
196,56,14,5,2012-09-02 23:57:54
196,335,83,5,2012-09-02 23:58:46
196,315,5,5,2012-09-02 23:59:54
196,61,8,5,2012-09-03 00:00:36
196,344,96,5,2012-09-03 00:00:52
196,517,84,5,2012-09-03 00:18:33
196,518,84,5,2012-09-03 00:21:50
196,519,84,4,2012-09-03 00:26:39
196,520,4,5,2012-09-03 00:28:12
196,521,11,4,2012-09-03 00:33:03
196,522,110,2,2012-09-03 00:39:29
196,523,110,4,2012-09-03 00:40:54
196,524,96,5,2012-09-03 00:42:55
196,525,92,5,2012-09-03 00:46:31
196,526,39,5,2012-09-03 00:47:41
196,527,97,1,2012-09-03 00:50:27
196,528,101,5,2012-09-03 00:51:41
197,442,1,4,2012-09-03 00:53:23
197,122,2,4,2012-09-03 00:53:53
196,529,5,4,2012-09-03 00:54:17
197,72,15,5,2012-09-03 00:54:24
197,50,14,4,2012-09-03 00:54:53
197,303,5,5,2012-09-03 00:55:09
197,60,12,4,2012-09-03 00:55:36
197,380,1,4,2012-09-03 00:55:57
197,83,18,4,2012-09-03 00:56:51
197,292,3,4,2012-09-03 00:57:10
197,95,6,4,2012-09-03 00:57:44
196,530,43,5,2012-09-03 00:57:52
196,531,84,2,2012-09-03 00:59:04
196,532,84,4,2012-09-03 01:00:20
198,49,13,4,2012-09-03 02:03:43
198,393,4,3,2012-09-03 02:04:27
198,91,6,1,2012-09-03 02:04:46
198,398,4,4,2012-09-03 02:05:16
198,504,101,5,2012-09-03 02:05:55
198,11,17,1,2012-09-03 02:06:38
198,78,15,4,2012-09-03 02:06:58
198,62,12,3,2012-09-03 02:07:18
198,397,96,4,2012-09-03 02:08:11
198,93,6,5,2012-09-03 02:08:39
198,533,4,3,2012-09-03 02:16:48
198,534,4,5,2012-09-03 02:17:40
198,535,84,5,2012-09-03 02:18:47
198,536,4,5,2012-09-03 02:19:36
198,537,6,3,2012-09-03 02:20:56
198,538,4,3,2012-09-03 02:21:39
198,539,4,5,2012-09-03 02:22:31
198,540,2,3,2012-09-03 02:23:51
198,541,11,3,2012-09-03 02:24:38
198,542,12,3,2012-09-03 02:26:07
198,543,12,5,2012-09-03 02:27:05
199,34,16,4,2012-09-03 02:51:59
199,545,5,3,2012-09-03 03:02:49
199,546,97,5,2012-09-03 03:06:19
199,547,38,2,2012-09-03 03:07:43
199,521,11,1,2012-09-03 03:11:52
199,518,84,1,2012-09-03 03:12:30
199,532,84,1,2012-09-03 03:13:25
29,6,16,5,2012-09-03 21:41:58
29,138,16,4,2012-09-03 21:43:03
29,141,18,1,2012-09-03 21:43:59
29,510,109,2,2012-09-03 21:44:41
29,549,107,2,2012-09-03 21:54:07
41,39,1,5,2012-09-03 22:34:09
41,121,2,5,2012-09-03 22:36:42
41,8,6,3,2012-09-03 22:42:34
41,98,16,1,2012-09-03 22:47:02
41,321,3,5,2012-09-03 22:50:35
41,37,19,5,2012-09-03 22:51:12
41,50,14,3,2012-09-03 22:52:28
41,80,11,2,2012-09-03 22:53:48
41,5,4,1,2012-09-03 22:54:13
41,322,3,5,2012-09-03 22:55:13
41,34,16,5,2012-09-03 22:57:09
201,25,16,1,2012-09-04 00:52:05
201,340,18,2,2012-09-04 00:56:07
201,285,8,1,2012-09-04 00:59:01
201,442,1,3,2012-09-04 00:59:17
201,340,18,4,2012-09-04 00:59:47
201,2,4,4,2012-09-04 01:00:54
201,321,3,5,2012-09-04 01:01:11
201,155,1,2,2012-09-04 01:01:23
201,64,12,3,2012-09-04 01:01:37
201,5,4,4,2012-09-04 01:01:56
201,92,6,1,2012-09-04 01:02:14
202,397,96,3,2012-09-04 13:33:22
202,108,10,3,2012-09-04 13:33:36
202,17,13,3,2012-09-04 13:33:48
202,75,15,3,2012-09-04 13:34:01
202,62,12,3,2012-09-04 13:34:13
202,342,1,3,2012-09-04 13:34:29
202,87,18,3,2012-09-04 13:34:42
202,354,1,3,2012-09-04 13:34:54
202,87,18,3,2012-09-04 13:35:11
202,144,1,3,2012-09-04 13:35:22
202,356,1,3,2012-09-04 13:35:52
202,550,2,3,2012-09-04 13:42:51
202,551,84,3,2012-09-04 13:46:15
202,552,108,3,2012-09-04 13:47:25
202,553,43,3,2012-09-04 13:50:01
202,554,11,3,2012-09-04 13:51:14
202,555,11,3,2012-09-04 13:52:45
202,556,43,3,2012-09-04 13:54:24
202,557,43,3,2012-09-04 13:55:47
202,558,11,3,2012-09-04 14:04:58
202,559,2,3,2012-09-04 14:06:24
202,560,23,3,2012-09-04 14:09:14
13,44,97,4,2012-09-04 14:11:25
13,80,11,4,2012-09-04 14:16:25
13,322,102,3,2012-09-04 14:32:35
15,34,16,5,2012-09-04 20:05:35
15,308,1,5,2012-09-04 20:07:15
15,65,12,4,2012-09-04 20:11:18
15,360,11,5,2012-09-04 20:14:55
15,515,4,5,2012-09-04 20:15:45
15,66,12,3,2012-09-04 20:16:43
15,358,11,4,2012-09-04 20:25:07
15,364,103,2,2012-09-04 20:40:29
15,367,96,5,2012-09-04 20:40:54
15,332,1,5,2012-09-04 20:42:14
20,457,4,2,2012-09-04 20:43:48
20,76,15,4,2012-09-04 20:44:04
20,457,4,2,2012-09-04 20:44:32
20,393,4,1,2012-09-04 20:48:20
20,343,11,2,2012-09-04 20:48:39
20,352,4,4,2012-09-04 20:49:20
15,561,109,5,2012-09-04 20:52:38
20,355,97,1,2012-09-04 20:53:45
20,557,43,1,2012-09-04 20:54:07
20,144,1,1,2012-09-04 20:54:22
20,553,43,1,2012-09-04 20:54:40
20,551,84,1,2012-09-04 20:54:58
15,562,8,5,2012-09-04 21:05:50
15,563,2,5,2012-09-04 21:10:08
15,564,2,5,2012-09-04 21:18:36
15,565,4,4,2012-09-04 21:27:48
15,566,1,5,2012-09-04 21:32:26
15,567,2,5,2012-09-04 21:39:09
15,568,8,5,2012-09-04 21:45:35
204,35,3,4,2012-09-04 21:45:47
204,19,5,3,2012-09-04 21:49:37
15,569,2,5,2012-09-04 21:52:45
15,570,1,5,2012-09-04 22:00:56
9,571,110,2,2012-09-04 22:36:41
9,572,4,4,2012-09-04 22:39:09
9,573,110,2,2012-09-04 22:45:59
9,574,4,1,2012-09-04 22:47:13
181,467,24,3,2012-09-05 02:08:58
181,410,102,4,2012-09-05 02:11:48
181,86,18,3,2012-09-05 02:14:27
181,290,12,4,2012-09-05 02:15:51
9,582,110,5,2012-09-05 16:10:19
9,583,108,3,2012-09-05 16:12:07
9,584,108,4,2012-09-05 16:17:17
9,585,96,5,2012-09-05 16:20:13
9,586,96,4,2012-09-05 16:22:47
9,39,1,5,2012-09-05 16:24:56
9,587,96,4,2012-09-05 16:26:46
9,1,11,3,2012-09-05 16:29:39
9,313,1,4,2012-09-05 16:30:59
9,468,1,4,2012-09-05 16:32:58
9,473,1,3,2012-09-05 16:34:52
9,588,1,3,2012-09-05 16:35:45
9,471,79,3,2012-09-05 16:38:05
9,7,100,2,2012-09-05 16:45:46
9,30,1,4,2012-09-05 16:47:06
9,34,102,5,2012-09-05 16:48:41
10,285,24,4,2012-09-05 16:48:50
9,472,12,2,2012-09-05 16:50:29
10,589,12,5,2012-09-05 17:51:31
137,590,11,3,2012-09-05 20:49:46
137,591,16,5,2012-09-05 21:34:22
137,592,2,3,2012-09-05 21:36:13
137,593,11,3,2012-09-05 21:38:44
137,594,11,4,2012-09-05 21:49:54
137,595,2,5,2012-09-05 21:52:12
137,596,11,4,2012-09-05 22:13:36
137,597,2,3,2012-09-05 22:15:36
137,598,1,5,2012-09-05 22:17:11
137,599,1,4,2012-09-05 22:22:31
137,600,2,3,2012-09-05 22:24:09
137,601,2,5,2012-09-05 22:25:38
137,602,2,3,2012-09-05 22:28:10
137,604,102,5,2012-09-05 22:34:44
137,606,4,4,2012-09-05 22:54:16
137,607,4,5,2012-09-05 22:55:21
137,608,4,4,2012-09-05 22:56:31
137,611,1,4,2012-09-05 23:16:54
208,45,11,4,2012-09-05 23:47:22
209,528,101,4,2012-09-06 00:12:47
209,612,2,3,2012-09-06 00:17:20
209,303,5,3,2012-09-06 00:20:20
209,31,1,3,2012-09-06 00:21:28
208,313,1,4,2012-09-06 00:22:35
208,38,1,4,2012-09-06 00:23:47
208,16,16,5,2012-09-06 00:24:45
209,292,3,3,2012-09-06 00:24:52
208,30,1,4,2012-09-06 00:25:34
209,380,1,3,2012-09-06 00:25:39
208,565,4,4,2012-09-06 00:26:12
209,528,101,3,2012-09-06 00:27:20
208,319,1,5,2012-09-06 00:27:46
209,528,101,3,2012-09-06 00:27:58
197,614,108,4,2012-09-06 00:28:28
209,484,98,3,2012-09-06 00:29:09
208,324,4,4,2012-09-06 00:29:16
197,615,112,4,2012-09-06 00:30:04
208,442,1,3,2012-09-06 00:30:15
197,616,1,5,2012-09-06 00:31:06
209,53,14,4,2012-09-06 00:31:21
208,384,11,4,2012-09-06 00:31:49
197,617,111,4,2012-09-06 00:32:30
209,619,11,5,2012-09-06 00:36:46
197,620,1,5,2012-09-06 00:36:49
197,622,1,5,2012-09-06 00:38:51
209,623,2,4,2012-09-06 00:39:20
197,625,1,5,2012-09-06 00:40:42
197,627,1,4,2012-09-06 00:47:24
197,628,11,4,2012-09-06 00:49:26
197,629,108,5,2012-09-06 00:50:46
211,366,104,2,2012-09-06 14:13:22
211,369,1,5,2012-09-06 14:13:54
211,512,102,4,2012-09-06 14:14:11
211,67,8,4,2012-09-06 14:14:24
211,419,105,1,2012-09-06 14:14:43
211,420,105,2,2012-09-06 14:14:58
211,475,16,3,2012-09-06 14:15:56
211,485,3,3,2012-09-06 14:16:15
211,594,11,3,2012-09-06 14:17:06
210,57,14,4,2012-09-06 15:29:00
210,410,38,4,2012-09-06 15:31:34
120,296,5,4,2012-09-06 15:32:49
120,45,11,1,2012-09-06 15:33:43
120,615,112,1,2012-09-06 15:34:16
210,567,2,5,2012-09-06 15:35:08
120,5,4,1,2012-09-06 15:35:47
120,64,12,1,2012-09-06 15:36:13
120,96,6,1,2012-09-06 15:36:49
210,65,12,3,2012-09-06 15:37:11
210,49,13,4,2012-09-06 15:38:33
210,561,109,4,2012-09-06 15:41:10
200,630,97,5,2012-09-06 15:42:40
120,565,4,1,2012-09-06 15:46:53
120,68,12,3,2012-09-06 15:47:22
120,2,4,3,2012-09-06 15:48:19
120,628,11,1,2012-09-06 15:49:21
210,611,1,3,2012-09-06 15:54:36
210,608,4,4,2012-09-06 15:55:36
210,348,5,1,2012-09-06 16:02:45
212,103,5,3,2012-09-06 17:04:29
212,56,14,4,2012-09-06 17:05:25
212,84,18,2,2012-09-06 17:06:53
212,308,1,3,2012-09-06 17:07:38
212,563,2,4,2012-09-06 17:09:22
212,383,4,3,2012-09-06 17:10:13
212,370,11,2,2012-09-06 17:10:52
212,135,16,5,2012-09-06 17:11:27
212,16,16,5,2012-09-06 17:11:59
212,38,1,2,2012-09-06 17:12:51
212,324,4,3,2012-09-06 17:13:50
212,7,18,4,2012-09-06 17:19:39
212,631,2,4,2012-09-06 17:28:02
212,632,2,5,2012-09-06 17:30:29
212,633,1,4,2012-09-06 17:32:58
212,634,96,5,2012-09-06 17:37:25
212,635,83,5,2012-09-06 17:38:54
212,636,1,4,2012-09-06 18:01:47
212,637,95,4,2012-09-06 18:05:59
212,638,99,5,2012-09-06 18:10:36
212,639,101,5,2012-09-06 18:19:37
212,640,97,4,2012-09-06 18:26:39
106,592,2,5,2012-09-07 12:27:32
106,641,12,3,2012-09-07 12:37:30
106,410,38,5,2012-09-07 12:38:11
106,642,12,5,2012-09-07 12:40:43
106,403,98,5,2012-09-07 12:41:37
106,347,1,5,2012-09-07 12:44:16
106,91,6,5,2012-09-07 12:44:45
106,10,16,2,2012-09-07 12:45:27
106,543,12,5,2012-09-07 12:46:07
106,643,2,5,2012-09-07 12:48:59
106,645,100,5,2012-09-07 12:52:34
106,646,4,4,2012-09-07 12:53:42
34,16,16,4,2012-09-07 17:37:23
34,562,8,4,2012-09-07 17:38:05
34,565,4,5,2012-09-07 17:39:04
34,92,6,5,2012-09-07 17:40:44
34,388,11,3,2012-09-07 17:41:19
34,585,96,1,2012-09-07 17:47:02
34,388,11,4,2012-09-07 17:49:44
34,59,13,5,2012-09-07 17:50:43
34,50,14,4,2012-09-07 17:51:19
34,60,12,4,2012-09-07 17:54:27
34,39,1,5,2012-09-07 18:00:48
164,512,102,5,2012-09-07 18:27:26
164,71,12,5,2012-09-07 18:30:23
164,369,1,1,2012-09-07 18:31:09
164,367,96,4,2012-09-07 18:32:16
164,66,12,4,2012-09-07 18:33:10
164,361,11,2,2012-09-07 18:34:47
164,363,1,4,2012-09-07 18:35:26
164,630,97,1,2012-09-07 18:36:13
164,514,108,5,2012-09-07 18:36:54
164,138,16,3,2012-09-07 18:37:38
39,582,110,5,2012-09-07 18:52:14
39,321,3,4,2012-09-07 18:52:44
39,60,12,4,2012-09-07 18:53:28
39,388,11,4,2012-09-07 18:54:34
39,34,16,3,2012-09-07 18:55:31
39,562,8,4,2012-09-07 18:56:04
39,121,2,4,2012-09-07 18:56:52
39,431,97,3,2012-09-07 18:57:37
39,23,20,3,2012-09-07 18:58:50
39,6,16,5,2012-09-07 19:00:47
39,316,15,5,2012-09-07 19:05:53
205,647,50,2,2012-09-07 22:18:56
150,306,92,2,2012-09-09 13:23:51
150,629,108,4,2012-09-09 13:24:21
150,60,12,5,2012-09-09 13:25:31
150,380,1,4,2012-09-09 13:26:08
150,68,12,5,2012-09-09 13:27:05
150,322,3,4,2012-09-09 13:28:02
150,98,16,2,2012-09-09 13:28:49
150,41,1,5,2012-09-09 13:29:36
150,127,99,5,2012-09-09 13:30:24
150,74,15,5,2012-09-09 13:31:54
142,564,2,3,2012-09-09 15:19:29
142,27,9,1,2012-09-09 15:21:06
142,307,92,5,2012-09-09 15:22:07
142,83,18,4,2012-09-09 15:22:44
142,647,50,3,2012-09-09 15:23:44
142,44,16,4,2012-09-09 15:24:38
142,292,3,5,2012-09-09 15:25:27
142,324,4,3,2012-09-09 15:25:55
142,296,5,4,2012-09-09 15:26:24
25,83,18,1,2012-09-09 15:37:20
25,122,2,1,2012-09-09 15:37:47
25,387,103,1,2012-09-09 15:38:14
25,292,3,1,2012-09-09 15:38:41
25,60,12,1,2012-09-09 15:39:03
25,2,4,1,2012-09-09 15:40:26
25,629,108,1,2012-09-09 15:40:54
25,620,1,1,2012-09-09 15:41:29
25,98,16,1,2012-09-09 15:42:01
25,285,8,1,2012-09-09 15:42:25
25,620,1,1,2012-09-09 15:42:59
25,14,5,1,2012-09-09 15:43:19
142,648,89,3,2012-09-09 16:01:59
142,649,86,5,2012-09-09 16:08:28
25,315,21,5,2012-09-09 17:09:41
